﻿SELECT CONVERT(DATETIME,'{1}') STARTDATE,
		CONVERT(DATETIME,'{1}') ENDDATE,
		CLI_BAS.NOME CLIENTNAME,
		CLI_BAS.CODCLI ,
		DS DESCRICAO, 
		SAC_CL_CPR.MTTP_CD, 
		VL  VALOR , 
		SAC_CL_PATRSINT.VL_PATRLIQTOT1 PATRLIQTOT,
		HIST_TRADUZIDO,
		CLI_BAS.MOEDA	CLI_BAS_MOEDA,
		'REAL    ' RV_CADPAP_CODMOEDA,
		ISNULL(( SELECT VALORACU 
			FROM IDX_INDEX
			WHERE ( CODINDEX = ( SELECT INDEXADOR 
						FROM BAS_XRATE 
						WHERE ( CODMOEDA1 = CLI_BAS.MOEDA ) AND  
							( CODMOEDA2 = 'REAL    ' ) ))
			AND ( DATA = '{1}' )), 0.00 ) VL_RATE_EA1, 
		
		ISNULL(( SELECT 1.00 / VALORACU 
			FROM IDX_INDEX
			WHERE ( CODINDEX = ( SELECT INDEXADOR 
						FROM BAS_XRATE 
						WHERE ( CODMOEDA1 = 'REAL    ' ) AND
							( CODMOEDA2 =  CLI_BAS.MOEDA ) ))
			AND ( DATA = '{1}' )), 0.00 ) VL_RATE_EA2
  
 FROM SAC_CL_CPR,
		CLI_BAS ,
		SAC_CL_PATRSINT
WHERE SAC_CL_CPR.DT = SAC_CL_PATRSINT.DT AND SAC_CL_CPR.CLCLI_CD = SAC_CL_PATRSINT.CLCLI_CD AND 
	(SAC_CL_CPR.DT = '{1}') AND 
		( SAC_CL_CPR.CLCLI_CD = CLI_BAS.CODCLI ) AND 
		(SAC_CL_CPR.CLCLI_CD = '{0}') AND 
		(DS NOT LIKE 'Saldo em Tesouraria%') AND
		(DS <> 'Ajuste Sac/Cotista')
